Empirical Bayes
…
---

Who are the best players based on Empirical Bayes?

```r
player_df %>% 
  select(player_name, n_attempts, n_3pts, .alpha1:.raw) %>% 
  arrange(desc(.fitted))
```

```
## # A tibble: 236 x 7
##    player_name       n_attempts n_3pts .alpha1 .beta1 .fitted  .raw
##    <chr>                  <int>  <int>   <dbl>  <dbl>   <dbl> <dbl>
##  1 kyle korver               69     41   106.    158.   0.402 0.594
##  2 wesley matthews          125     57   122.    198.   0.381 0.456
##  3 mike conley               49     25    90.1   154.   0.369 0.510
##  4 luke babbitt              22     15    80.1   137.   0.369 0.682
##  5 aaron brooks              88     39   104.    179.   0.368 0.443
##  6 isaiah thomas             88     38   103.    180.   0.364 0.432
##  7 manu ginobili             47     23    88.1   154.   0.364 0.489
##  8 patrick patterson         60     27    92.1   163.   0.361 0.45 
##  9 nick young                84     35   100.    179.   0.359 0.417
## 10 tony parker               15     10    75.1   135.   0.358 0.667
## # … with 226 more rows
```
…
---

Who are the best players based on Empirical Bayes?

```r
player_df_good %>% 
  arrange(desc(new_eb)) %>% 
  select(player_name:original_eb, age, bmi, new_eb)
```

```
## # A tibble: 236 x 7
##    player_name    n_attempts n_3pts original_eb   age   bmi new_eb
##    <chr>               <int>  <int>       <dbl> <dbl> <dbl>  <dbl>
##  1 kyle korver            69     41       0.402    34  23.9  0.410
##  2 manu ginobili          47     23       0.364    38  23.7  0.392
##  3 pablo prigioni         33     15       0.351    38  23.2  0.389
##  4 steve blake            43     17       0.345    35  21.5  0.388
##  5 aaron brooks           88     39       0.368    30  21.9  0.387
##  6 jason terry            80     33       0.357    38  23.8  0.383
##  7 mike conley            49     25       0.369    28  23.1  0.376
##  8 tony parker            15     10       0.358    33  23.8  0.376
##  9 hedo turkoglu          22      8       0.337    36  23.1  0.374
## 10 rasual butler          81     33       0.355    36  24.3  0.374
## # … with 226 more rows
```
…
