Group by operations comparison in pandas, dplyr and SQL | David Masip’s notes
…
Here we want to keep groups of species and islands with more than 70
penguins in them. In this case, dplyr and python have a very similar
API, the most complicated in here is the SQL one.

with high_penguins as (
    select species, island from penguins group by 1, 2 having count(*) > 70
) select p.* 
from penguins p
inner join high_penguins using(species, island)

df %>% 
  group_by(species, island) %>%
  filter(n() > 70)

## # A tibble: 124 x 8
## # Groups:   species, island [1]
##    species island bill_length_mm bill_depth_mm flipper_length_mm body_mass_g
##    <fct>   <fct>           <dbl>         <dbl>             <int>       <int>
##  1 Gentoo  Biscoe           46.1          13.2               211        4500
##  2 Gentoo  Biscoe           50            16.3               230        5700
##  3 Gentoo  Biscoe           48.7          14.1               210        4450
##  4 Gentoo  Biscoe           50            15.2               218        5700
##  5 Gentoo  Biscoe           47.6          14.5               215        5400
##  6 Gentoo  Biscoe           46.5          13.5               210        4550
##  7 Gentoo  Biscoe           45.4          14.6               211        4800
##  8 Gentoo  Biscoe           46.7          15.3               219        5200
##  9 Gentoo  Biscoe           43.3          13.4               209        4400
## 10 Gentoo  Biscoe           46.8          15.4               215        5150
## # … with 114 more rows, and 2 more variables: sex <fct>, year <int>
…
-- Doesn't work in sqlite
select 
    *, 
    avg(bill_length_mm) over (partition by species, island) 
from penguins

df %>% 
  group_by(species, island) %>% 
  mutate(
    mean_bill_length = mean(bill_length_mm, na.rm = T)
  )

## # A tibble: 344 x 9
## # Groups:   species, island [5]
##    species island    bill_length_mm bill_depth_mm flipper_length_mm body_mass_g
##    <fct>   <fct>              <dbl>         <dbl>             <int>       <int>
##  1 Adelie  Torgersen           39.1          18.7               181        3750
##  2 Adelie  Torgersen           39.5          17.4               186        3800
##  3 Adelie  Torgersen           40.3          18                 195        3250
##  4 Adelie  Torgersen           NA            NA                  NA          NA
##  5 Adelie  Torgersen           36.7          19.3               193        3450
##  6 Adelie  Torgersen           39.3          20.6               190        3650
##  7 Adelie  Torgersen           38.9          17.8               181        3625
##  8 Adelie  Torgersen           39.2          19.6               195        4675
##  9 Adelie  Torgersen           34.1          18.1               193        3475
## 10 Adelie  Torgersen           42            20.2               190        4250
## # … with 334 more rows, and 3 more variables: sex <fct>, year <int>,
## #   mean_bill_length <dbl>
…
